…
Salaries %>%
  arrange(desc(salary))

# A tibble: 397 x 6
   rank  discipline yrs.since.phd yrs.service sex   salary
   <fct> <fct>              <int>       <int> <fct>  <int>
 1 Prof  B                     38          38 Male  231545
 2 Prof  A                     43          43 Male  205500
 3 Prof  A                     29           7 Male  204000
 4 Prof  A                     42          18 Male  194800
 5 Prof  B                     26          19 Male  193000
 6 Prof  B                     49          60 Male  192253
 7 Prof  B                     34          33 Male  189409
 8 Prof  B                     56          49 Male  186960
 9 Prof  A                     33          18 Male  186023
10 Prof  A                     39           9 Male  183800
# ... with 387 more rows
…
Note: The resid vs fitted values plot shows that the model is relatively accurate when it predicts low values of salary, and highly inaccurate when it predicts high values of salary.

\(\color{red}{\text{Build a model to predict binary response}}\)

\(\color{green}{\text{Creating 0/1 binary indicator using salary}}\)

(Salaries_binary <- Salaries %>%
  mutate(salary_binary = if_else(salary < median(salary), 0 , 1)) %>%
  as.tbl())

# A tibble: 397 x 7
   rank    discipline yrs.since.phd yrs.service sex   salary salary_binary
   <fct>   <fct>              <int>       <int> <fct>  <int>         <dbl>
 1 Prof    B                     19          18 Male  139750             1
 2 Prof    B                     20          16 Male  173200             1
 3 AsstPr~ B                      4           3 Male   79750             0
 4 Prof    B                     45          39 Male  115000             1
 5 Prof    B                     40          41 Male  141500             1
 6 AssocP~ B                      6           6 Male   97000             0
 7 Prof    B                     30          23 Male  175000             1
 8 Prof    B                     45          45 Male  147765             1
 9 Prof    B                     21          20 Male  119250             1
10 Prof    B                     18          18 Fema~ 129000             1
# ... with 387 more rows
…
